{
    "dateLastIndexed": {
        "variant": [
            {
                "name": "dateLastIndexed_tdate",
                "type": "tdate",
                "indexed": true,
                "stocked": false,
                "multiplevalue": false,
                "currentName": "dateLastIndexed_tdate"
            }
        ],
        "dynamic": false,
        "description": "Date de derni\u00e8re indexation",
        "label": "Derni\u00e8re indexation"
    },
    "docid": {
        "variant": [
            {
                "name": "docid",
                "type": "string",
                "indexed": true,
                "stocked": true,
                "multiplevalue": false,
                "currentName": "docid"
            }
        ],
        "dynamic": false,
        "description": "Identifiant unique",
        "label": "Identifiant"
    },
    "emailDomain": {
        "variant": [
            {
                "name": "emailDomain_s",
                "type": "string",
                "indexed": true,
                "stocked": true,
                "multiplevalue": true,
                "currentName": "emailDomain_s"
            }
        ],
        "dynamic": false,
        "description": "Domaine de l'adresse de courriel",
        "label": "Domaine email"
    },
    "emailId": {
        "variant": [
            {
                "name": "emailId_t",
                "type": "text",
                "indexed": true,
                "stocked": false,
                "multiplevalue": true,
                "currentName": "emailId_t"
            }
        ],
        "dynamic": false,
        "description": "author_emailId_t",
        "label": "Email (md5)"
    },
    "firstName": {
        "variant": [
            {
                "name": "firstName_s",
                "type": "string",
                "indexed": true,
                "stocked": true,
                "multiplevalue": false,
                "currentName": "firstName_s"
            },
            {
                "name": "firstName_t",
                "type": "text",
                "indexed": true,
                "stocked": false,
                "multiplevalue": false,
                "currentName": "firstName_t"
            }
        ],
        "dynamic": false,
        "description": "Pr\u00e9nom",
        "label": "Pr\u00e9nom"
    },
    "form": {
        "variant": [
            {
                "name": "form_i",
                "type": "int",
                "indexed": false,
                "stocked": false,
                "multiplevalue": false,
                "currentName": "form_i"
            }
        ],
        "dynamic": false,
        "description": "author_form_i"
    },
    "fullNameDocid": {
        "variant": [
            {
                "name": "fullNameDocid_fs",
                "type": "facetString",
                "indexed": false,
                "stocked": true,
                "multiplevalue": false,
                "currentName": "fullNameDocid_fs"
            }
        ],
        "dynamic": false,
        "description": "author_fullNameDocid_fs"
    },
    "fullName": {
        "variant": [
            {
                "name": "fullName_autocomplete",
                "type": "text_autocomplete",
                "indexed": true,
                "stocked": false,
                "multiplevalue": false,
                "currentName": "fullName_autocomplete"
            },
            {
                "name": "fullName_s",
                "type": "string",
                "indexed": true,
                "stocked": true,
                "multiplevalue": false,
                "currentName": "fullName_s"
            },
            {
                "name": "fullName_sci",
                "type": "stringCaseInsensitive",
                "indexed": true,
                "stocked": false,
                "multiplevalue": false,
                "currentName": "fullName_sci"
            },
            {
                "name": "fullName_t",
                "type": "text",
                "indexed": true,
                "stocked": false,
                "multiplevalue": false,
                "currentName": "fullName_t"
            }
        ],
        "dynamic": false,
        "description": "Nom complet pour auto-compl\u00e9tion",
        "label": "Nom complet"
    },
    "hasCV": {
        "variant": [
            {
                "name": "hasCV_bool",
                "type": "boolean",
                "indexed": true,
                "stocked": true,
                "multiplevalue": false,
                "currentName": "hasCV_bool"
            }
        ],
        "dynamic": false,
        "description": "true si l'auteur a un cr\u00e9\u00e9 un CV, sinon false",
        "label": "A un CV"
    },
    "idHal": {
        "variant": [
            {
                "name": "idHal_i",
                "type": "int",
                "indexed": false,
                "stocked": false,
                "multiplevalue": false,
                "currentName": "idHal_i"
            },
            {
                "name": "idHal_s",
                "type": "string",
                "indexed": true,
                "stocked": true,
                "multiplevalue": false,
                "currentName": "idHal_s"
            }
        ],
        "dynamic": false,
        "description": "Identifiant HAL",
        "label": "Identifiant HAL"
    },
    "label": {
        "variant": [
            {
                "name": "label_html",
                "type": "string",
                "indexed": false,
                "stocked": true,
                "multiplevalue": false,
                "currentName": "label_html"
            },
            {
                "name": "label_s",
                "type": "string",
                "indexed": true,
                "stocked": true,
                "multiplevalue": false,
                "currentName": "label_s"
            }
        ],
        "dynamic": false,
        "description": "R\u00e9sultat au format HTML",
        "label": "Repr\u00e9sentation HTML"
    },
    "lastName": {
        "variant": [
            {
                "name": "lastName_s",
                "type": "string",
                "indexed": true,
                "stocked": true,
                "multiplevalue": false,
                "currentName": "lastName_s"
            },
            {
                "name": "lastName_t",
                "type": "text",
                "indexed": true,
                "stocked": false,
                "multiplevalue": false,
                "currentName": "lastName_t"
            }
        ],
        "dynamic": false,
        "description": "Nom de famille",
        "label": "Nom de famille"
    },
    "middleName": {
        "variant": [
            {
                "name": "middleName_s",
                "type": "string",
                "indexed": true,
                "stocked": true,
                "multiplevalue": false,
                "currentName": "middleName_s"
            },
            {
                "name": "middleName_t",
                "type": "text",
                "indexed": true,
                "stocked": false,
                "multiplevalue": false,
                "currentName": "middleName_t"
            }
        ],
        "dynamic": false,
        "description": "Deuxi\u00e8me pr\u00e9nom",
        "label": "Deuxi\u00e8me pr\u00e9nom"
    },
    "person": {
        "variant": [
            {
                "name": "person_i",
                "type": "int",
                "indexed": false,
                "stocked": false,
                "multiplevalue": false,
                "currentName": "person_i"
            }
        ],
        "dynamic": false,
        "description": "author_person_i"
    },
    "text": {
        "variant": [
            {
                "name": "text",
                "type": "text",
                "indexed": true,
                "stocked": false,
                "multiplevalue": true,
                "currentName": "text"
            },
            {
                "name": "text_autocomplete",
                "type": "text_autocomplete",
                "indexed": true,
                "stocked": false,
                "multiplevalue": true,
                "currentName": "text_autocomplete"
            }
        ],
        "dynamic": false,
        "description": "Champ de recherche par d\u00e9faut",
        "label": "Champ de recherche"
    },
    "valid": {
        "variant": [
            {
                "name": "valid_s",
                "type": "string",
                "indexed": true,
                "stocked": true,
                "multiplevalue": false,
                "currentName": "valid_s"
            }
        ],
        "dynamic": false,
        "description": "\u00c9tat de la forme auteur",
        "label": "Validit\u00e9 de la forme"
    },
    "*Id": {
        "variant": [
            {
                "name": "*Id_id",
                "type": "identifier",
                "indexed": true,
                "stocked": false,
                "multiplevalue": true,
                "currentName": "*Id_id"
            },
            {
                "name": "*Id_s",
                "type": "string",
                "indexed": true,
                "stocked": true,
                "multiplevalue": true,
                "currentName": "*Id_s"
            }
        ],
        "dynamic": true,
        "description": ""
    }
}